[
  {
    "symbol_id": "pages:block_charged_certus_quartz_ore",
    "poem": [
      "Transform",
      "Constraint",
      "Energistics",
      "BLOCK_NAME"
    ],
    "card_rank": 4,
    "grammar_rules": [
      {
        "parent": "mystcraft:BlockSolid",
        "rank": 4
      },
      {
        "parent": "mystcraft:BlockStructure",
        "rank": 4
      }
    ],
    "localization": {
      "unlocal_name": "tile.appliedenergistics2.charged_quartz_ore.name"
    },
    "behavior": {
      "behavior_id": "mystlibrary:block",
      "block_id": "appliedenergistics2:charged_quartz_ore",
      "instability_base": 2,
      "instability_exposed": 10
    }
  },
  {
    "symbol_id": "pages:block_certus_quartz_ore",
    "poem": [
      "Transform",
      "Constraint",
      "Energistics",
      "BLOCK_NAME"
    ],
    "card_rank": 3,
    "grammar_rules": [
      {
        "parent": "mystcraft:BlockSolid",
        "rank": 4
      },
      {
        "parent": "mystcraft:BlockStructure",
        "rank": 4
      }
    ],
    "localization": {
      "unlocal_name": "tile.appliedenergistics2.quartz_ore.name"
    },
    "behavior": {
      "behavior_id": "mystlibrary:block",
      "block_id": "appliedenergistics2:quartz_ore",
      "instability_base": 1,
      "instability_exposed": 5
    }
  },
  {
    "symbol_id": "pages:block_chiseled_certus_quartz",
    "poem": [
      "Transform",
      "Constraint",
      "Energistics",
      "BLOCK_NAME"
    ],
    "card_rank": 6,
    "grammar_rules": [
      {
        "parent": "mystcraft:BlockSolid",
        "rank": 4
      },
      {
        "parent": "mystcraft:BlockStructure",
        "rank": 4
      }
    ],
    "localization": {
      "unlocal_name": "tile.appliedenergistics2.chiseled_quartz_block.name"
    },
    "behavior": {
      "behavior_id": "mystlibrary:block",
      "block_id": "appliedenergistics2:chiseled_quartz_block",
      "instability_base": 2,
      "instability_exposed": 10
    }
  },
  {
    "symbol_id": "pages:block_fluix",
    "poem": [
      "Transform",
      "Constraint",
      "Energistics",
      "BLOCK_NAME"
    ],
    "card_rank": 3,
    "grammar_rules": [
      {
        "parent": "mystcraft:BlockSolid",
        "rank": 6
      },
      {
        "parent": "mystcraft:BlockStructure",
        "rank": 6
      }
    ],
    "localization": {
      "unlocal_name": "tile.appliedenergistics2.fluix_block.name"
    },
    "behavior": {
      "behavior_id": "mystlibrary:block",
      "block_id": "appliedenergistics2:fluix_block",
      "instability_base": 2,
      "instability_exposed": 10
    }
  },
  {
    "symbol_id": "pages:block_certus_quartz",
    "poem": [
      "Transform",
      "Constraint",
      "Energistics",
      "BLOCK_NAME"
    ],
    "card_rank": 3,
    "grammar_rules": [
      {
        "parent": "mystcraft:BlockSolid",
        "rank": 4
      },
      {
        "parent": "mystcraft:BlockStructure",
        "rank": 4
      }
    ],
    "localization": {
      "unlocal_name": "tile.appliedenergistics2.quartz_block.name"
    },
    "behavior": {
      "behavior_id": "mystlibrary:block",
      "block_id": "appliedenergistics2:quartz_block",
      "instability_base": 2,
      "instability_exposed": 10
    }
  },
  {
    "symbol_id": "pages:block_quartz_glass",
    "poem": [
      "Transform",
      "Constraint",
      "Energistics",
      "BLOCK_NAME"
    ],
    "card_rank": 4,
    "grammar_rules": [
      {
        "parent": "mystcraft:BlockSolid",
        "rank": 4
      },
      {
        "parent": "mystcraft:BlockStructure",
        "rank": 4
      }
    ],
    "localization": {
      "unlocal_name": "tile.appliedenergistics2.quartz_glass.name"
    },
    "behavior": {
      "behavior_id": "mystlibrary:block",
      "block_id": "appliedenergistics2:quartz_glass",
      "instability_base": 1,
      "instability_exposed": 5
    }
  },
  {
    "symbol_id": "pages:block_certus_quartz_pillar",
    "poem": [
      "Transform",
      "Constraint",
      "Energistics",
      "BLOCK_NAME"
    ],
    "card_rank": 3,
    "grammar_rules": [
      {
        "parent": "mystcraft:BlockSolid",
        "rank": 4
      },
      {
        "parent": "mystcraft:BlockStructure",
        "rank": 4
      }
    ],
    "localization": {
      "unlocal_name": "tile.appliedenergistics2.quartz_pillar.name"
    },
    "behavior": {
      "behavior_id": "mystlibrary:block",
      "block_id": "appliedenergistics2:quartz_pillar",
      "instability_base": 1,
      "instability_exposed": 2
    }
  },
  {
    "symbol_id": "pages:block_quartz_vibrant_glass",
    "poem": [
      "Transform",
      "Constraint",
      "Energistics",
      "BLOCK_NAME"
    ],
    "card_rank": 4,
    "grammar_rules": [
      {
        "parent": "mystcraft:BlockSolid",
        "rank": 5
      },
      {
        "parent": "mystcraft:BlockStructure",
        "rank": 5
      }
    ],
    "localization": {
      "unlocal_name": "tile.appliedenergistics2.quartz_vibrant_glass.name"
    },
    "behavior": {
      "behavior_id": "mystlibrary:block",
      "block_id": "appliedenergistics2:quartz_vibrant_glass",
      "instability_base": 1,
      "instability_exposed": 6
    }
  },
  {
    "symbol_id": "pages:block_sky_stone",
    "poem": [
      "Transform",
      "Constraint",
      "Energistics",
      "BLOCK_NAME"
    ],
    "card_rank": 2,
    "grammar_rules": [
      {
        "parent": "mystcraft:BlockSolid",
        "rank": 4
      },
      {
        "parent": "mystcraft:BlockStructure",
        "rank": 4
      }
    ],
    "localization": {
      "unlocal_name": "tile.appliedenergistics2.sky_stone_block.name"
    },
    "behavior": {
      "behavior_id": "mystlibrary:block",
      "block_id": "appliedenergistics2:sky_stone_block",
      "instability_base": 1,
      "instability_exposed": 2
    }
  },
  {
    "symbol_id": "pages:block_sky_stone_brick",
    "poem": [
      "Transform",
      "Constraint",
      "Energistics",
      "BLOCK_NAME"
    ],
    "card_rank": 3,
    "grammar_rules": [
      {
        "parent": "mystcraft:BlockSolid",
        "rank": 3
      },
      {
        "parent": "mystcraft:BlockStructure",
        "rank": 3
      }
    ],
    "localization": {
      "unlocal_name": "tile.appliedenergistics2.sky_stone_brick.name"
    },
    "behavior": {
      "behavior_id": "mystlibrary:block",
      "block_id": "appliedenergistics2:sky_stone_brick",
      "instability_base": 1,
      "instability_exposed": 2
    }
  },
  {
    "symbol_id": "pages:block_sky_stone_small_brick",
    "poem": [
      "Transform",
      "Constraint",
      "Energistics",
      "BLOCK_NAME"
    ],
    "card_rank": 3,
    "grammar_rules": [
      {
        "parent": "mystcraft:BlockSolid",
        "rank": 3
      },
      {
        "parent": "mystcraft:BlockStructure",
        "rank": 3
      }
    ],
    "localization": {
      "unlocal_name": "tile.appliedenergistics2.sky_stone_small_brick.name"
    },
    "behavior": {
      "behavior_id": "mystlibrary:block",
      "block_id": "appliedenergistics2:sky_stone_small_brick",
      "instability_base": 1,
      "instability_exposed": 2
    }
  },
  {
    "symbol_id": "pages:block_smooth_sky_stone",
    "poem": [
      "Transform",
      "Constraint",
      "Energistics",
      "BLOCK_NAME"
    ],
    "card_rank": 3,
    "grammar_rules": [
      {
        "parent": "mystcraft:BlockSolid",
        "rank": 3
      },
      {
        "parent": "mystcraft:BlockStructure",
        "rank": 3
      }
    ],
    "localization": {
      "unlocal_name": "tile.appliedenergistics2.smooth_sky_stone_block.name"
    },
    "behavior": {
      "behavior_id": "mystlibrary:block",
      "block_id": "appliedenergistics2:smooth_sky_stone_block",
      "instability_base": 1,
      "instability_exposed": 2
    }
  }
]