[
  {
    "symbol_id": "pages:block_log_darkwood",
    "poem": [
      "Transform",
      "Constraint",
      "Twilight",
      "BLOCK_NAME"
    ],
    "card_rank": 2,
    "grammar_rules": [
      {
        "parent": "mystcraft:BlockSolid",
        "rank": 2
      },
      {
        "parent": "mystcraft:BlockStructure",
        "rank": 1
      },
      {
        "parent": "mystcraft:BlockOrganic",
        "rank": 1
      }
    ],
    "localization": {
      "unlocal_name": "tile.twilightforest.Log.3.3.name"
    },
    "behavior": {
      "behavior_id": "mystlibrary:block",
      "block_id": "twilightforest:twilight_log",
      "properties": {
        "axis": "y",
        "variant": "dark"
      }
    }
  },
  {
    "symbol_id": "pages:block_log_mangrove",
    "poem": [
      "Transform",
      "Constraint",
      "Twilight",
      "BLOCK_NAME"
    ],
    "card_rank": 2,
    "grammar_rules": [
      {
        "parent": "mystcraft:BlockSolid",
        "rank": 2
      },
      {
        "parent": "mystcraft:BlockStructure",
        "rank": 1
      },
      {
        "parent": "mystcraft:BlockOrganic",
        "rank": 1
      }
    ],
    "localization": {
      "unlocal_name": "tile.twilightforest.Log.2.2.name"
    },
    "behavior": {
      "behavior_id": "mystlibrary:block",
      "block_id": "twilightforest:twilight_log",
      "properties": {
        "axis": "y",
        "variant": "mangrove"
      }
    }
  },
  {
    "symbol_id": "pages:block_log_canopy_tree",
    "poem": [
      "Transform",
      "Constraint",
      "Twilight",
      "BLOCK_NAME"
    ],
    "card_rank": 2,
    "grammar_rules": [
      {
        "parent": "mystcraft:BlockSolid",
        "rank": 2
      },
      {
        "parent": "mystcraft:BlockStructure",
        "rank": 1
      },
      {
        "parent": "mystcraft:BlockOrganic",
        "rank": 1
      }
    ],
    "localization": {
      "unlocal_name": "tile.twilightforest.Log.1.1.name"
    },
    "behavior": {
      "behavior_id": "mystlibrary:block",
      "block_id": "twilightforest:twilight_log",
      "properties": {
        "axis": "y",
        "variant": "canopy"
      }
    }
  },
  {
    "symbol_id": "pages:block_log_twilight_oak",
    "poem": [
      "Transform",
      "Constraint",
      "Twilight",
      "BLOCK_NAME"
    ],
    "card_rank": 2,
    "grammar_rules": [
      {
        "parent": "mystcraft:BlockSolid",
        "rank": 2
      },
      {
        "parent": "mystcraft:BlockStructure",
        "rank": 1
      },
      {
        "parent": "mystcraft:BlockOrganic",
        "rank": 1
      }
    ],
    "localization": {
      "unlocal_name": "tile.twilightforest.Log.0.0.name"
    },
    "behavior": {
      "behavior_id": "mystlibrary:block",
      "block_id": "twilightforest:twilight_log",
      "properties": {
        "axis": "y",
        "variant": "oak"
      }
    }
  },
  {
    "symbol_id": "pages:block_liveroots",
    "poem": [
      "Transform",
      "Constraint",
      "Twilight",
      "BLOCK_NAME"
    ],
    "card_rank": 2,
    "grammar_rules": [
      {
        "parent": "mystcraft:BlockSolid",
        "rank": 2
      },
      {
        "parent": "mystcraft:BlockStructure",
        "rank": 1
      },
      {
        "parent": "mystcraft:BlockOrganic",
        "rank": 1
      }
    ],
    "localization": {
      "unlocal_name": "tile.twilightforest.Roots.0.1.name"
    },
    "behavior": {
      "behavior_id": "mystlibrary:block",
      "block_id": "twilightforest:root",
      "properties": {
        "variant": "liveroot"
      }
    }
  },
  {
    "symbol_id": "pages:block_roots",
    "poem": [
      "Transform",
      "Constraint",
      "Twilight",
      "BLOCK_NAME"
    ],
    "card_rank": 2,
    "grammar_rules": [
      {
        "parent": "mystcraft:BlockSolid",
        "rank": 2
      },
      {
        "parent": "mystcraft:BlockStructure",
        "rank": 1
      },
      {
        "parent": "mystcraft:BlockOrganic",
        "rank": 1
      }
    ],
    "localization": {
      "unlocal_name": "tile.twilightforest.Roots.0.0.name"
    },
    "behavior": {
      "behavior_id": "mystlibrary:block",
      "block_id": "twilightforest:root",
      "properties": {
        "variant": "root"
      }
    }
  },
  {
    "symbol_id": "pages:block_leaves_rainbow_oak",
    "poem": [
      "Transform",
      "Constraint",
      "Twilight",
      "BLOCK_NAME"
    ],
    "card_rank": 3,
    "grammar_rules": [
      {
        "parent": "mystcraft:BlockSolid",
        "rank": 2
      },
      {
        "parent": "mystcraft:BlockStructure",
        "rank": 2
      },
      {
        "parent": "mystcraft:BlockOrganic",
        "rank": 2
      }
    ],
    "localization": {
      "unlocal_name": "tile.twilightforest.Leaves.3.2.name"
    },
    "behavior": {
      "behavior_id": "mystlibrary:block",
      "block_id": "twilightforest:twilight_leaves",
      "properties": {
        "check_decay": false,
        "decayable": false,
        "variant": "rainboak"
      }
    }
  },
  {
    "symbol_id": "pages:block_leaves_mangrove",
    "poem": [
      "Transform",
      "Constraint",
      "Twilight",
      "BLOCK_NAME"
    ],
    "card_rank": 3,
    "grammar_rules": [
      {
        "parent": "mystcraft:BlockSolid",
        "rank": 2
      },
      {
        "parent": "mystcraft:BlockStructure",
        "rank": 2
      },
      {
        "parent": "mystcraft:BlockOrganic",
        "rank": 2
      }
    ],
    "localization": {
      "unlocal_name": "tile.twilightforest.Leaves.2.2.name"
    },
    "behavior": {
      "behavior_id": "mystlibrary:block",
      "block_id": "twilightforest:twilight_leaves",
      "properties": {
        "check_decay": false,
        "decayable": false,
        "variant": "mangrove"
      }
    }
  },
  {
    "symbol_id": "pages:block_leaves_canopy_tree",
    "poem": [
      "Transform",
      "Constraint",
      "Twilight",
      "BLOCK_NAME"
    ],
    "card_rank": 3,
    "grammar_rules": [
      {
        "parent": "mystcraft:BlockSolid",
        "rank": 2
      },
      {
        "parent": "mystcraft:BlockStructure",
        "rank": 2
      },
      {
        "parent": "mystcraft:BlockOrganic",
        "rank": 2
      }
    ],
    "localization": {
      "unlocal_name": "tile.twilightforest.Leaves.1.1.name"
    },
    "behavior": {
      "behavior_id": "mystlibrary:block",
      "block_id": "twilightforest:twilight_leaves",
      "properties": {
        "check_decay": false,
        "decayable": false,
        "variant": "canopy"
      }
    }
  },
  {
    "symbol_id": "pages:block_leaves_twilight_oak",
    "poem": [
      "Transform",
      "Constraint",
      "Twilight",
      "BLOCK_NAME"
    ],
    "card_rank": 3,
    "grammar_rules": [
      {
        "parent": "mystcraft:BlockSolid",
        "rank": 2
      },
      {
        "parent": "mystcraft:BlockStructure",
        "rank": 2
      },
      {
        "parent": "mystcraft:BlockOrganic",
        "rank": 2
      }
    ],
    "localization": {
      "unlocal_name": "tile.twilightforest.Leaves.0.0.name"
    },
    "behavior": {
      "behavior_id": "mystlibrary:block",
      "block_id": "twilightforest:twilight_leaves",
      "properties": {
        "check_decay": false,
        "decayable": false,
        "variant": "oak"
      }
    }
  },
  {
    "symbol_id": "pages:block_mazestone",
    "poem": [
      "Transform",
      "Constraint",
      "Twilight",
      "BLOCK_NAME"
    ],
    "card_rank": 4,
    "grammar_rules": [
      {
        "parent": "mystcraft:BlockSolid",
        "rank": 2
      },
      {
        "parent": "mystcraft:BlockStructure",
        "rank": 2
      }
    ],
    "localization": {
      "unlocal_name": "tile.twilightforest.Mazestone.0.0.name"
    },
    "behavior": {
      "behavior_id": "mystlibrary:block",
      "block_id": "twilightforest:maze_stone",
      "properties": {
        "variant": "plain"
      }
    }
  },
  {
    "symbol_id": "pages:block_hedge",
    "poem": [
      "Transform",
      "Constraint",
      "Twilight",
      "BLOCK_NAME"
    ],
    "card_rank": 3,
    "grammar_rules": [
      {
        "parent": "mystcraft:BlockSolid",
        "rank": 2
      },
      {
        "parent": "mystcraft:BlockStructure",
        "rank": 2
      },
      {
        "parent": "mystcraft:BlockOrganic",
        "rank": 2
      }
    ],
    "localization": {
      "unlocal_name": "tile.twilightforest.Hedge.0.0.name"
    },
    "behavior": {
      "behavior_id": "mystlibrary:block",
      "block_id": "twilightforest:hedge",
      "properties": {
        "variant": "hedge"
      }
    }
  },
  {
    "symbol_id": "pages:block_log_sortingwood",
    "poem": [
      "Transform",
      "Constraint",
      "Twilight",
      "BLOCK_NAME"
    ],
    "card_rank": 3,
    "grammar_rules": [
      {
        "parent": "mystcraft:BlockSolid",
        "rank": 3
      },
      {
        "parent": "mystcraft:BlockStructure",
        "rank": 2
      },
      {
        "parent": "mystcraft:BlockOrganic",
        "rank": 2
      }
    ],
    "localization": {
      "unlocal_name": "tile.twilightforest.MagicLog.3.3.name"
    },
    "behavior": {
      "behavior_id": "mystlibrary:block",
      "block_id": "twilightforest:magic_log",
      "properties": {
        "axis": "y",
        "variant": "sort"
      }
    }
  },
  {
    "symbol_id": "pages:block_log_minewood",
    "poem": [
      "Transform",
      "Constraint",
      "Twilight",
      "BLOCK_NAME"
    ],
    "card_rank": 3,
    "grammar_rules": [
      {
        "parent": "mystcraft:BlockSolid",
        "rank": 3
      },
      {
        "parent": "mystcraft:BlockStructure",
        "rank": 2
      },
      {
        "parent": "mystcraft:BlockOrganic",
        "rank": 2
      }
    ],
    "localization": {
      "unlocal_name": "tile.twilightforest.MagicLog.2.2.name"
    },
    "behavior": {
      "behavior_id": "mystlibrary:block",
      "block_id": "twilightforest:magic_log",
      "properties": {
        "axis": "y",
        "variant": "mine"
      }
    }
  },
  {
    "symbol_id": "pages:block_log_transwood",
    "poem": [
      "Transform",
      "Constraint",
      "Twilight",
      "BLOCK_NAME"
    ],
    "card_rank": 3,
    "grammar_rules": [
      {
        "parent": "mystcraft:BlockSolid",
        "rank": 3
      },
      {
        "parent": "mystcraft:BlockStructure",
        "rank": 2
      },
      {
        "parent": "mystcraft:BlockOrganic",
        "rank": 2
      }
    ],
    "localization": {
      "unlocal_name": "tile.twilightforest.MagicLog.1.1.name"
    },
    "behavior": {
      "behavior_id": "mystlibrary:block",
      "block_id": "twilightforest:magic_log",
      "properties": {
        "axis": "y",
        "variant": "trans"
      }
    }
  },
  {
    "symbol_id": "pages:block_log_timewood",
    "poem": [
      "Transform",
      "Constraint",
      "Twilight",
      "BLOCK_NAME"
    ],
    "card_rank": 3,
    "grammar_rules": [
      {
        "parent": "mystcraft:BlockSolid",
        "rank": 3
      },
      {
        "parent": "mystcraft:BlockStructure",
        "rank": 2
      },
      {
        "parent": "mystcraft:BlockOrganic",
        "rank": 2
      }
    ],
    "localization": {
      "unlocal_name": "tile.twilightforest.MagicLog.0.0.name"
    },
    "behavior": {
      "behavior_id": "mystlibrary:block",
      "block_id": "twilightforest:magic_log",
      "properties": {
        "axis": "y",
        "variant": "time"
      }
    }
  },
  {
    "symbol_id": "pages:block_leaves_sorting",
    "poem": [
      "Transform",
      "Constraint",
      "Twilight",
      "BLOCK_NAME"
    ],
    "card_rank": 2,
    "grammar_rules": [
      {
        "parent": "mystcraft:BlockSolid",
        "rank": 3
      },
      {
        "parent": "mystcraft:BlockStructure",
        "rank": 3
      },
      {
        "parent": "mystcraft:BlockOrganic",
        "rank": 3
      }
    ],
    "localization": {
      "unlocal_name": "tile.twilightforest.MagicLeaves.3.2.name"
    },
    "behavior": {
      "behavior_id": "mystlibrary:block",
      "block_id": "twilightforest:magic_leaves",
      "properties": {
        "check_decay": false,
        "decayable": false,
        "variant": "sort"
      }
    }
  },
  {
    "symbol_id": "pages:block_leaves_miners",
    "poem": [
      "Transform",
      "Constraint",
      "Twilight",
      "BLOCK_NAME"
    ],
    "card_rank": 2,
    "grammar_rules": [
      {
        "parent": "mystcraft:BlockSolid",
        "rank": 3
      },
      {
        "parent": "mystcraft:BlockStructure",
        "rank": 3
      },
      {
        "parent": "mystcraft:BlockOrganic",
        "rank": 3
      }
    ],
    "localization": {
      "unlocal_name": "tile.twilightforest.MagicLeaves.2.2.name"
    },
    "behavior": {
      "behavior_id": "mystlibrary:block",
      "block_id": "twilightforest:magic_leaves",
      "properties": {
        "check_decay": false,
        "decayable": false,
        "variant": "mine"
      }
    }
  },
  {
    "symbol_id": "pages:block_leaves_transformation",
    "poem": [
      "Transform",
      "Constraint",
      "Twilight",
      "BLOCK_NAME"
    ],
    "card_rank": 4,
    "grammar_rules": [
      {
        "parent": "mystcraft:BlockSolid",
        "rank": 3
      },
      {
        "parent": "mystcraft:BlockStructure",
        "rank": 3
      },
      {
        "parent": "mystcraft:BlockOrganic",
        "rank": 3
      }
    ],
    "localization": {
      "unlocal_name": "tile.twilightforest.MagicLeaves.1.1.name"
    },
    "behavior": {
      "behavior_id": "mystlibrary:block",
      "block_id": "twilightforest:magic_leaves",
      "properties": {
        "check_decay": false,
        "decayable": false,
        "variant": "trans"
      }
    }
  },
  {
    "symbol_id": "pages:block_leaves_timewood",
    "poem": [
      "Transform",
      "Constraint",
      "Twilight",
      "BLOCK_NAME"
    ],
    "card_rank": 4,
    "grammar_rules": [
      {
        "parent": "mystcraft:BlockSolid",
        "rank": 3
      },
      {
        "parent": "mystcraft:BlockStructure",
        "rank": 3
      },
      {
        "parent": "mystcraft:BlockOrganic",
        "rank": 3
      }
    ],
    "localization": {
      "unlocal_name": "tile.twilightforest.MagicLeaves.0.0.name"
    },
    "behavior": {
      "behavior_id": "mystlibrary:block",
      "block_id": "twilightforest:magic_leaves",
      "properties": {
        "check_decay": false,
        "decayable": false,
        "variant": "time"
      }
    }
  },
  {
    "symbol_id": "pages:block_planks_towerwood",
    "poem": [
      "Transform",
      "Constraint",
      "Twilight",
      "BLOCK_NAME"
    ],
    "card_rank": 4,
    "grammar_rules": [
      {
        "parent": "mystcraft:BlockSolid",
        "rank": 3
      },
      {
        "parent": "mystcraft:BlockStructure",
        "rank": 4
      }
    ],
    "localization": {
      "unlocal_name": "tile.twilightforest.TowerStone.0.0.name"
    },
    "behavior": {
      "behavior_id": "mystlibrary:block",
      "block_id": "twilightforest:tower_wood",
      "properties": {
        "variant": "plain"
      }
    }
  },
  {
    "symbol_id": "pages:block_aurora",
    "poem": [
      "Transform",
      "Constraint",
      "Twilight",
      "BLOCK_NAME"
    ],
    "card_rank": 4,
    "grammar_rules": [
      {
        "parent": "mystcraft:BlockSolid",
        "rank": 5
      },
      {
        "parent": "mystcraft:BlockStructure",
        "rank": 5
      }
    ],
    "localization": {
      "unlocal_name": "tile.twilightforest.AuroraBrick.name"
    },
    "behavior": {
      "behavior_id": "mystlibrary:block",
      "block_id": "twilightforest:aurora_block"
    }
  },
  {
    "symbol_id": "pages:block_underbrick",
    "poem": [
      "Transform",
      "Constraint",
      "Twilight",
      "BLOCK_NAME"
    ],
    "card_rank": 2,
    "grammar_rules": [
      {
        "parent": "mystcraft:BlockSolid",
        "rank": 2
      },
      {
        "parent": "mystcraft:BlockStructure",
        "rank": 2
      }
    ],
    "localization": {
      "unlocal_name": "tile.twilightforest.UnderBrick.0.0.name"
    },
    "behavior": {
      "behavior_id": "mystlibrary:block",
      "block_id": "twilightforest:underbrick",
      "properties": {
        "variant": "normal"
      }
    }
  },
  {
    "symbol_id": "pages:block_deadrock",
    "poem": [
      "Transform",
      "Constraint",
      "Twilight",
      "BLOCK_NAME"
    ],
    "card_rank": 3,
    "grammar_rules": [
      {
        "parent": "mystcraft:BlockSolid",
        "rank": 3
      },
      {
        "parent": "mystcraft:BlockStructure",
        "rank": 3
      }
    ],
    "localization": {
      "unlocal_name": "tile.twilightforest.Deadrock.solid.solid.name"
    },
    "behavior": {
      "behavior_id": "mystlibrary:block",
      "block_id": "twilightforest:deadrock",
      "properties": {
        "variant": "solid"
      }
    }
  },
  {
    "symbol_id": "pages:block_leaves_darkwood",
    "poem": [
      "Transform",
      "Constraint",
      "Twilight",
      "BLOCK_NAME"
    ],
    "card_rank": 4,
    "grammar_rules": [
      {
        "parent": "mystcraft:BlockSolid",
        "rank": 3
      },
      {
        "parent": "mystcraft:BlockStructure",
        "rank": 3
      },
      {
        "parent": "mystcraft:BlockOrganic",
        "rank": 3
      }
    ],
    "localization": {
      "unlocal_name": "tile.twilightforest.DarkLeaves.name"
    },
    "behavior": {
      "behavior_id": "mystlibrary:block",
      "block_id": "twilightforest:dark_leaves"
    }
  },
  {
    "symbol_id": "pages:block_cloud_wispy",
    "poem": [
      "Transform",
      "Constraint",
      "Twilight",
      "BLOCK_NAME"
    ],
    "card_rank": 3,
    "grammar_rules": [
      {
        "parent": "mystcraft:BlockSolid",
        "rank": 3
      },
      {
        "parent": "mystcraft:BlockStructure",
        "rank": 3
      },
      {
        "parent": "mystcraft:BlockSea",
        "rank": 3
      }
    ],
    "localization": {
      "unlocal_name": "tile.twilightforest.WispyCloud.name"
    },
    "behavior": {
      "behavior_id": "mystlibrary:block",
      "block_id": "twilightforest:wispy_cloud"
    }
  },
  {
    "symbol_id": "pages:block_cloud_fluffy",
    "poem": [
      "Transform",
      "Constraint",
      "Twilight",
      "BLOCK_NAME"
    ],
    "card_rank": 3,
    "grammar_rules": [
      {
        "parent": "mystcraft:BlockSolid",
        "rank": 3
      },
      {
        "parent": "mystcraft:BlockStructure",
        "rank": 3
      },
      {
        "parent": "mystcraft:BlockSea",
        "rank": 3
      }
    ],
    "localization": {
      "unlocal_name": "tile.twilightforest.FluffyCloud.name"
    },
    "behavior": {
      "behavior_id": "mystlibrary:block",
      "block_id": "twilightforest:fluffy_cloud"
    }
  },
  {
    "symbol_id": "pages:block_castle_brick",
    "poem": [
      "Transform",
      "Constraint",
      "Twilight",
      "BLOCK_NAME"
    ],
    "card_rank": 3,
    "grammar_rules": [
      {
        "parent": "mystcraft:BlockSolid",
        "rank": 2
      },
      {
        "parent": "mystcraft:BlockStructure",
        "rank": 2
      }
    ],
    "localization": {
      "unlocal_name": "tile.twilightforest.CastleBrick.0.0.name"
    },
    "behavior": {
      "behavior_id": "mystlibrary:block",
      "block_id": "twilightforest:castle_brick",
      "properties": {
        "variant": "normal"
      }
    }
  },
  {
    "symbol_id": "pages:block_glass_auroralized",
    "poem": [
      "Transform",
      "Constraint",
      "Twilight",
      "BLOCK_NAME"
    ],
    "card_rank": 3,
    "grammar_rules": [
      {
        "parent": "mystcraft:BlockSolid",
        "rank": 3
      },
      {
        "parent": "mystcraft:BlockStructure",
        "rank": 3
      },
      {
        "parent": "mystcraft:BlockCrystal",
        "rank": 3
      }
    ],
    "localization": {
      "unlocal_name": "tile.twilightforest.AuroralizedGlass.name"
    },
    "behavior": {
      "behavior_id": "mystlibrary:block",
      "block_id": "twilightforest:auroralized_glass"
    }
  }
]